<?xml version="1.0" encoding="UTF-8" standalone="no"?>
<!-- Created with Inkscape (http://www.inkscape.org/) -->

<svg
   width="210mm"
   height="297mm"
   viewBox="0 0 210 297"
   version="1.1"
   id="svg5"
   inkscape:version="1.2.1 (9c6d41e410, 2022-07-14, custom)"
   sodipodi:docname="7_memory_block_merged.svg"
   inkscape:export-filename="../../content/posts/microarch_learning/microarch_learning/3_memory_access_unaligned.png"
   inkscape:export-xdpi="96"
   inkscape:export-ydpi="96"
   xmlns:inkscape="http://www.inkscape.org/namespaces/inkscape"
   xmlns:sodipodi="http://sodipodi.sourceforge.net/DTD/sodipodi-0.dtd"
   xmlns="http://www.w3.org/2000/svg"
   xmlns:svg="http://www.w3.org/2000/svg">
  <sodipodi:namedview
     id="namedview7"
     pagecolor="#ffffff"
     bordercolor="#000000"
     borderopacity="0.25"
     inkscape:showpageshadow="2"
     inkscape:pageopacity="0.0"
     inkscape:pagecheckerboard="0"
     inkscape:deskcolor="#d1d1d1"
     inkscape:document-units="mm"
     showgrid="true"
     inkscape:zoom="5.982985"
     inkscape:cx="321.99646"
     inkscape:cy="162.21"
     inkscape:window-width="1916"
     inkscape:window-height="1036"
     inkscape:window-x="0"
     inkscape:window-y="20"
     inkscape:window-maximized="1"
     inkscape:current-layer="layer1">
    <inkscape:grid
       type="xygrid"
       id="grid9" />
  </sodipodi:namedview>
  <defs
     id="defs2">
    <rect
       x="220"
       y="115"
       width="15"
       height="15"
       id="rect495" />
    <rect
       x="220"
       y="115"
       width="15"
       height="15"
       id="rect503" />
    <rect
       x="220"
       y="115"
       width="15"
       height="15"
       id="rect509" />
    <rect
       x="220"
       y="115"
       width="15"
       height="15"
       id="rect515" />
    <rect
       x="220"
       y="115"
       width="15"
       height="15"
       id="rect635" />
  </defs>
  <g
     inkscape:label="Layer 1"
     inkscape:groupmode="layer"
     id="layer1">
    <rect
       style="fill:#ffffff;stroke:none;stroke-width:0.403888"
       id="rect761"
       width="36.637783"
       height="49.866943"
       x="65.024857"
       y="26.660276"
       inkscape:export-filename="../../content/posts/microarch_learning/microarch_learning/4_memory_access_unaligned_second.png"
       inkscape:export-xdpi="96"
       inkscape:export-ydpi="96" />
    <rect
       style="fill:#ff0000;stroke-width:0.264583"
       id="rect127"
       width="22.489584"
       height="10.583333"
       x="75.40625"
       y="30.427082"
       inkscape:export-filename="1_memory_block.png"
       inkscape:export-xdpi="96"
       inkscape:export-ydpi="96" />
    <rect
       style="fill:#00ff00;stroke-width:0.264583"
       id="rect289"
       width="22.489584"
       height="10.583333"
       x="75.40625"
       y="41.010418" />
    <rect
       style="fill:#ff0000;stroke-width:0.264583"
       id="rect291"
       width="22.489584"
       height="10.583333"
       x="75.40625"
       y="51.59375" />
    <rect
       style="fill:#00ff00;stroke-width:0.264583"
       id="rect293"
       width="22.489584"
       height="10.583333"
       x="75.40625"
       y="62.177086" />
    <path
       style="fill:#000000;stroke-width:0.264583;stroke:#000000"
       d="m 75.406249,30.427083 h -3.96875"
       id="path403" />
    <path
       style="fill:#000000;stroke:#000000;stroke-width:0.264583"
       d="m 75.406249,41.010417 h -3.96875"
       id="path405"
       inkscape:export-filename="../../content/posts/microarch_learning/microarch_learning/7_memory_block_merged.png"
       inkscape:export-xdpi="96"
       inkscape:export-ydpi="96" />
    <path
       style="fill:#000000;stroke:#000000;stroke-width:0.264583"
       d="m 75.406249,51.461459 h -3.96875"
       id="path407" />
    <path
       style="fill:#000000;stroke:#000000;stroke-width:0.264583"
       d="m 75.406249,62.177083 h -3.96875"
       id="path409" />
    <path
       style="fill:#000000;stroke:#000000;stroke-width:0.152757"
       d="M 75.406249,32.940625 H 74.083333"
       id="path411" />
    <path
       style="fill:#000000;stroke:#000000;stroke-width:0.152757"
       d="M 75.406249,35.71875 H 74.083333"
       id="path415" />
    <path
       style="fill:#000000;stroke:#000000;stroke-width:0.152757"
       d="M 75.406249,35.71875 H 74.083333"
       id="path417" />
    <path
       style="fill:#000000;stroke:#000000;stroke-width:0.152757"
       d="M 75.406249,38.288205 H 74.083333"
       id="path419" />
    <path
       style="fill:#000000;stroke:#000000;stroke-width:0.152757"
       d="M 75.406249,43.523958 H 74.083333"
       id="path423" />
    <path
       style="fill:#000000;stroke:#000000;stroke-width:0.152757"
       d="M 75.406249,46.302083 H 74.083333"
       id="path425" />
    <path
       style="fill:#000000;stroke:#000000;stroke-width:0.152757"
       d="M 75.406249,48.871538 H 74.083333"
       id="path427" />
    <path
       style="fill:#000000;stroke:#000000;stroke-width:0.152757"
       d="M 75.406249,54.107292 H 74.083333"
       id="path429" />
    <path
       style="fill:#000000;stroke:#000000;stroke-width:0.152757"
       d="M 75.406249,56.885417 H 74.083333"
       id="path431" />
    <path
       style="fill:#000000;stroke:#000000;stroke-width:0.152757"
       d="M 75.406249,59.454872 H 74.083333"
       id="path433" />
    <path
       style="fill:#000000;stroke:#000000;stroke-width:0.152757"
       d="M 75.406249,64.690625 H 74.083333"
       id="path435" />
    <path
       style="fill:#000000;stroke:#000000;stroke-width:0.152757"
       d="M 75.406249,67.46875 H 74.083333"
       id="path437" />
    <path
       style="fill:#000000;stroke:#000000;stroke-width:0.152757"
       d="M 75.406249,70.038205 H 74.083333"
       id="path439" />
    <text
       xml:space="preserve"
       transform="matrix(0.26458333,0,0,0.26458333,10.113434,-1.7776033)"
       id="text493"
       style="white-space:pre;shape-inside:url(#rect495);display:inline;fill:#000000;stroke:#000000"><tspan
         x="220"
         y="125.9185"
         id="tspan2744">0</tspan></text>
    <text
       xml:space="preserve"
       transform="matrix(0.26458333,0,0,0.26458333,10.113434,8.853355)"
       id="text501"
       style="white-space:pre;shape-inside:url(#rect503);display:inline;fill:#000000;stroke:#000000"><tspan
         x="220"
         y="125.9185"
         id="tspan2746">4</tspan></text>
    <text
       xml:space="preserve"
       transform="matrix(0.26458333,0,0,0.26458333,10.113434,19.436688)"
       id="text507"
       style="white-space:pre;shape-inside:url(#rect509);display:inline;fill:#000000;stroke:#000000"><tspan
         x="220"
         y="125.9185"
         id="tspan2748">8</tspan></text>
    <text
       xml:space="preserve"
       transform="matrix(0.26458333,0,0,0.26458333,8.3068575,30.020022)"
       id="text513"
       style="white-space:pre;shape-inside:url(#rect515);display:inline;fill:#000000;stroke:#000000"><tspan
         x="220"
         y="125.9185"
         id="tspan2750">12</tspan></text>
    <path
       style="fill:#000000;stroke:#000000;stroke-width:0.264583"
       d="m 75.406249,72.760417 h -3.96875"
       id="path629" />
    <text
       xml:space="preserve"
       transform="matrix(0.26458333,0,0,0.26458333,8.3068575,40.603356)"
       id="text633"
       style="white-space:pre;shape-inside:url(#rect635);display:inline;fill:#000000;stroke:#000000"><tspan
         x="220"
         y="125.9185"
         id="tspan2752">16</tspan></text>
    <rect
       style="fill:none;stroke:#484537;stroke-width:0.765;stroke-linecap:round;stroke-dasharray:none;stroke-dashoffset:0;paint-order:normal"
       id="rect892"
       width="22.489584"
       height="10.583333"
       x="75.538544"
       y="33.072918"
       ry="0.26458269"
       rx="0.26458588" />
  </g>
</svg>
